…
tidy_data
```

    ## # A tibble: 160 x 4
    ##    arm     id    week  arm_value
    ##    <chr>   <chr> <chr>     <dbl>
    ##  1 control 01    1          0.2 
    ##  2 control 02    1          1.13
    ##  3 control 03    1          1.77
    ##  4 control 04    1          1.04
    ##  5 control 05    1          0.47
    ##  6 control 06    1          2.37
    ##  7 control 07    1          0.03
    ##  8 control 08    1         -0.08
    ##  9 control 09    1          0.08
    ## 10 control 10    1          2.14
    ## # ... with 150 more rows
…
Running a for loop to call in function to replace missing values in the
iris dataset

``` r
for(i in 1:5) {
  
  iris_with_missing[i] = map(iris_with_missing[i], ~replace_missing(.x))
  
}

iris_with_missing
```

    ## # A tibble: 150 x 5
    ##    Sepal.Length Sepal.Width Petal.Length Petal.Width Species
    ##           <dbl>       <dbl>        <dbl>       <dbl> <chr>  
    ##  1         5.1          3.5         1.4         0.2  setosa 
    ##  2         4.9          3           1.4         0.2  setosa 
    ##  3         4.7          3.2         1.3         0.2  setosa 
    ##  4         4.6          3.1         1.5         1.19 setosa 
    ##  5         5            3.6         1.4         0.2  setosa 
    ##  6         5.4          3.9         1.7         0.4  setosa 
    ##  7         5.82         3.4         1.4         0.3  setosa 
    ##  8         5            3.4         1.5         0.2  setosa 
    ##  9         4.4          2.9         1.4         0.2  setosa 
    ## 10         4.9          3.1         3.77        0.1  setosa 
    ## # ... with 140 more rows
